<svg width="656" height="222" viewBox="0 0 656 222" fill="none" xmlns="http://www.w3.org/2000/svg">
<path d="M0.919983 152.77L9.74998 139.91C15.57 145.73 22.15 148.64 29.47 148.64C33.69 148.64 37.26 146.85 37.26 143.57C37.26 141.41 35.38 139.63 31.63 138.22L25.43 136.15C21.58 134.74 18.58 133.62 16.6 132.58C8.99999 128.54 5.14999 122.53 5.14999 114.55C5.14999 108.45 7.58998 103.28 12.38 99.24C17.17 95.2 23.37 93.14 30.97 93.14C40.45 93.14 48.62 96.05 55.67 101.87L47.5 115.2C43.37 111.82 36.51 109.47 31.25 109.47C26.46 109.47 23.83 111.44 23.83 113.98C23.83 116.04 25.71 117.74 29.37 119.14L35.47 121.39C38.94 122.61 41.67 123.64 43.45 124.39C52.28 128.15 56.69 134.25 56.69 142.61C56.69 149.09 54.16 154.34 49.18 158.57C44.2 162.7 37.54 164.77 29.18 164.77C17.63 164.79 8.14998 160.75 0.919983 152.77V152.77ZM84.88 163.47L67.23 111.73H84.7L93.62 141.87L103.48 111.73H115.12L125.17 141.87L134 111.73H151.46L133.81 163.47H119.07L109.3 135.96L99.63 163.47H84.88V163.47ZM165.65 97.56C165.65 92.21 169.87 88.17 175.23 88.17C180.58 88.17 184.71 92.21 184.71 97.56C184.71 103.1 180.58 107.14 175.23 107.14C169.69 107.14 165.65 103.1 165.65 97.56ZM183.58 163.57H166.96V111.74H183.58V163.57ZM224.34 110.99V111.74H240.21V125.45H224.34V163.57H207.81V125.45H200.49V111.74H207.81V110.61C207.81 103.57 209.88 98.12 214.01 94.46C218.14 90.8 223.49 88.92 230.07 88.92C235.61 88.92 241.34 90.42 247.25 93.43L241.71 105.82C238.24 104.13 235.23 103.29 232.79 103.29C227.53 103.29 224.34 106.1 224.34 110.99V110.99ZM296.08 160.66C291.29 163.48 285.75 164.88 279.55 164.88C266.69 164.88 260.3 157.74 260.3 143.47V125.44H252.41V111.73H260.48V93.33H276.91V111.73H293.15V125.44H276.91V141.5C276.91 147.04 279.07 149.76 283.48 149.76C285.92 149.76 288.65 149.01 291.65 147.41L296.08 160.66ZM351.97 154.74C345.12 148.07 341.74 139.53 341.74 129.1C341.74 118.59 345.21 109.95 352.07 103.19C359.02 96.33 367.47 92.95 377.52 92.95C389.91 92.95 400.9 98.3 407.28 106.66L396.1 118.4C390.75 112.67 384.93 109.76 378.64 109.76C373.29 109.76 368.87 111.55 365.21 115.21C361.64 118.87 359.86 123.47 359.86 129.01C359.86 134.36 361.64 138.87 365.21 142.53C368.87 146.1 373.29 147.88 378.54 147.88C385.4 147.88 391.4 144.87 396.38 138.96L408.02 150.13C404.83 154.35 400.51 157.83 395.16 160.55C389.81 163.28 383.89 164.59 377.42 164.59C367.28 164.6 358.83 161.31 351.97 154.74V154.74ZM440.53 163.57H424V91.93H440.53V163.57ZM459.41 97.56C459.41 92.21 463.63 88.17 468.99 88.17C474.34 88.17 478.47 92.21 478.47 97.56C478.47 103.1 474.34 107.14 468.99 107.14C463.45 107.14 459.41 103.1 459.41 97.56ZM477.35 163.57H460.73V111.74H477.35V163.57ZM496.79 163.57V111.74H512.94V118.97C515.47 114.09 521.67 110.33 529.18 110.33C534.72 110.33 539.51 112.21 543.36 115.87C547.21 119.53 549.18 124.89 549.18 131.74V163.57H532.56V136.15C532.56 129.39 529.09 125.45 523.45 125.45C517.44 125.45 513.31 129.86 513.31 136.63V163.58H496.79V163.57ZM567.6 97.56C567.6 92.21 571.82 88.17 577.18 88.17C582.53 88.17 586.66 92.21 586.66 97.56C586.66 103.1 582.53 107.14 577.18 107.14C571.64 107.14 567.6 103.1 567.6 97.56ZM585.53 163.57H568.91V111.74H585.53V163.57ZM610.24 157.09C605.17 152.02 602.63 145.54 602.63 137.56C602.63 129.58 605.17 123.1 610.33 118.03C615.49 112.96 622.16 110.43 630.42 110.43C641.22 110.43 650.7 115.69 655.11 125.55L641.87 132.5C639.24 128.09 635.58 125.83 630.79 125.83C627.32 125.83 624.5 126.96 622.25 129.21C620.09 131.46 618.96 134.28 618.96 137.57C618.96 144.43 623.94 149.49 630.6 149.49C635.39 149.49 639.8 146.86 641.68 142.83L654.92 150.72C650.41 159.36 641.12 164.71 630.13 164.71C621.97 164.69 615.4 162.16 610.24 157.09V157.09Z" fill="#171717"/>
<path d="M154.2 186.45H157.21L146.92 212.64C144.5 218.83 142.27 221.16 138.58 221.16C137.31 221.16 136.12 220.88 135.07 220.29L135.48 217.87C136.57 218.37 137.57 218.6 138.49 218.6C141.04 218.6 142.73 216.51 144.32 212.36L144.91 210.81L134.53 186.44H137.54L146.24 207.26L154.2 186.45V186.45ZM162.85 189.55C165.26 187.09 168.27 185.86 171.91 185.86C175.55 185.86 178.56 187.09 180.97 189.55C183.39 192.01 184.57 195.02 184.57 198.61C184.57 202.21 183.39 205.26 180.97 207.72C178.56 210.18 175.55 211.41 171.91 211.41C168.27 211.41 165.26 210.18 162.85 207.72C160.43 205.26 159.25 202.21 159.25 198.61C159.25 195.01 160.43 192.01 162.85 189.55ZM179.02 205.95C180.89 203.95 181.84 201.48 181.84 198.62C181.84 195.75 180.88 193.29 179.02 191.33C177.16 189.37 174.78 188.37 171.92 188.37C169.1 188.37 166.73 189.37 164.82 191.38C162.95 193.34 162 195.75 162 198.62C162 201.49 162.96 203.95 164.82 205.95C166.73 207.91 169.1 208.91 171.92 208.91C174.78 208.91 177.15 207.9 179.02 205.95ZM192.67 208.68C190.89 206.81 189.98 204.35 189.98 201.3V186.45H192.71V201.25C192.71 205.94 195.49 208.86 199.91 208.86C204.46 208.86 207.15 205.94 207.15 201.21V186.45H209.88V201.3C209.88 207.5 206.1 211.41 199.91 211.41C196.91 211.41 194.5 210.5 192.67 208.68V208.68ZM216.94 210.82V186.45H219.53V190.37C220.85 187.32 223.17 185.81 226.59 185.81C227.55 185.81 228.55 185.95 229.6 186.22L229.28 188.81C228.42 188.54 227.55 188.4 226.69 188.4C222.27 188.4 219.68 191.86 219.68 196.92V210.81H216.94V210.82ZM245.45 189.55C247.86 187.09 250.87 185.86 254.51 185.86C258.15 185.86 261.16 187.09 263.57 189.55C265.99 192.01 267.17 195.02 267.17 198.61C267.17 202.21 265.99 205.26 263.57 207.72C261.16 210.18 258.15 211.41 254.51 211.41C250.87 211.41 247.86 210.18 245.45 207.72C243.03 205.26 241.85 202.21 241.85 198.61C241.85 195.01 243.03 192.01 245.45 189.55ZM261.62 205.95C263.49 203.95 264.44 201.48 264.44 198.62C264.44 195.75 263.48 193.29 261.62 191.33C259.76 189.37 257.38 188.37 254.52 188.37C251.7 188.37 249.33 189.37 247.42 191.38C245.55 193.34 244.6 195.75 244.6 198.62C244.6 201.49 245.56 203.95 247.42 205.95C249.33 207.91 251.7 208.91 254.52 208.91C257.38 208.91 259.75 207.9 261.62 205.95ZM272.91 210.82V186.45H275.55V190.73C277.01 187.5 280.06 185.81 284.02 185.81C286.75 185.81 289.03 186.72 290.9 188.5C292.77 190.28 293.68 192.83 293.68 196.11V210.82H290.95V196.61C290.95 191.51 288.22 188.37 283.71 188.37C281.57 188.37 279.7 189.1 278.06 190.6C276.46 192.06 275.65 194.24 275.65 197.16V210.82H272.91V210.82ZM303.51 210.82H300.78V176.43H303.51V210.82ZM309.83 180.3C309.83 178.98 310.88 177.98 312.2 177.98C313.47 177.98 314.52 178.98 314.52 180.3C314.52 181.62 313.47 182.62 312.2 182.62C310.88 182.62 309.83 181.62 309.83 180.3ZM313.48 210.82H310.75V186.45H313.48V210.82ZM321.08 210.82V186.45H323.72V190.73C325.18 187.5 328.23 185.81 332.19 185.81C334.92 185.81 337.2 186.72 339.07 188.5C340.94 190.28 341.85 192.83 341.85 196.11V210.82H339.12V196.61C339.12 191.51 336.39 188.37 331.88 188.37C329.74 188.37 327.87 189.1 326.23 190.6C324.63 192.06 323.82 194.24 323.82 197.16V210.82H321.08V210.82ZM370.68 199.71H350.18C350.59 205.13 354.1 208.82 360.06 208.82C363.2 208.82 366.8 207.68 368.99 205.9L370.27 207.99C367.9 209.86 364.03 211.36 360.02 211.36C351.05 211.36 347.36 204.94 347.36 198.56C347.36 194.87 348.45 191.87 350.69 189.45C352.92 187.04 355.84 185.85 359.48 185.85C362.76 185.85 365.45 186.9 367.59 189.04C369.73 191.13 370.82 193.96 370.82 197.56C370.81 197.88 370.77 198.61 370.68 199.71V199.71ZM350.18 197.2H367.99C367.94 191.78 364.44 188.36 359.47 188.36C354.37 188.36 350.73 191.87 350.18 197.2ZM407.83 176.43H410.56V210.82H407.83V206.08C405.78 209.5 402.32 211.46 398.17 211.46C394.71 211.46 391.84 210.23 389.52 207.77C387.2 205.26 386.06 202.26 386.06 198.66C386.06 195.06 387.2 192.06 389.52 189.6C391.84 187.14 394.71 185.91 398.17 185.91C402.31 185.91 405.77 187.91 407.83 191.24V176.43V176.43ZM405.28 205.9C407.1 203.9 408.01 201.43 408.01 198.57C408.01 195.75 407.1 193.33 405.28 191.37C403.46 189.41 401.14 188.41 398.31 188.41C395.53 188.41 393.21 189.41 391.43 191.37C389.65 193.33 388.79 195.79 388.79 198.66C388.79 201.53 389.66 203.99 391.43 205.95C393.2 207.91 395.53 208.91 398.31 208.91C401.14 208.91 403.46 207.9 405.28 205.9V205.9ZM419.94 189.55C422.35 187.09 425.36 185.86 429 185.86C432.64 185.86 435.65 187.09 438.06 189.55C440.48 192.01 441.66 195.02 441.66 198.61C441.66 202.21 440.48 205.26 438.06 207.72C435.65 210.18 432.64 211.41 429 211.41C425.36 211.41 422.35 210.18 419.94 207.72C417.52 205.26 416.34 202.21 416.34 198.61C416.34 195.01 417.52 192.01 419.94 189.55ZM436.11 205.95C437.98 203.95 438.93 201.48 438.93 198.62C438.93 195.75 437.97 193.29 436.11 191.33C434.25 189.37 431.87 188.37 429.01 188.37C426.19 188.37 423.82 189.37 421.91 191.38C420.04 193.34 419.09 195.75 419.09 198.62C419.09 201.49 420.05 203.95 421.91 205.95C423.82 207.91 426.19 208.91 429.01 208.91C431.87 208.91 434.24 207.9 436.11 205.95ZM449.31 207.81C446.99 205.39 445.8 202.34 445.8 198.65C445.8 194.92 446.98 191.87 449.35 189.45C451.76 187.04 454.81 185.85 458.5 185.85C463.28 185.85 467.52 188.27 469.39 192.14L467.16 193.41C465.52 190.31 462.2 188.35 458.51 188.35C455.64 188.35 453.23 189.31 451.36 191.27C449.49 193.18 448.54 195.64 448.54 198.65C448.54 201.61 449.45 204.07 451.27 205.98C453.09 207.89 455.41 208.85 458.24 208.85C461.93 208.85 465.44 206.76 467.03 203.79L469.26 205.16C468.3 207.03 466.8 208.53 464.8 209.67C462.8 210.81 460.61 211.36 458.24 211.36C454.64 211.37 451.63 210.18 449.31 207.81V207.81ZM489.52 209.27C487.74 210.68 485.6 211.37 483.05 211.37C478.18 211.37 475.72 208.18 475.72 202.85V188.86H471.39V186.45H475.76V177.84H478.45V186.45H488.47V188.86H478.45V202.94C478.45 206.9 480.05 208.86 483.28 208.86C485.15 208.86 486.83 208.31 488.38 207.17L489.52 209.27V209.27ZM494.98 189.55C497.39 187.09 500.4 185.86 504.04 185.86C507.68 185.86 510.69 187.09 513.1 189.55C515.52 192.01 516.7 195.02 516.7 198.61C516.7 202.21 515.52 205.26 513.1 207.72C510.69 210.18 507.68 211.41 504.04 211.41C500.4 211.41 497.39 210.18 494.98 207.72C492.56 205.26 491.38 202.21 491.38 198.61C491.38 195.01 492.56 192.01 494.98 189.55ZM511.15 205.95C513.02 203.95 513.97 201.48 513.97 198.62C513.97 195.75 513.01 193.29 511.15 191.33C509.29 189.37 506.91 188.37 504.05 188.37C501.23 188.37 498.86 189.37 496.95 191.38C495.08 193.34 494.13 195.75 494.13 198.62C494.13 201.49 495.09 203.95 496.95 205.95C498.86 207.91 501.23 208.91 504.05 208.91C506.91 208.91 509.28 207.9 511.15 205.95ZM522.44 210.82V186.45H525.03V190.37C526.35 187.32 528.67 185.81 532.09 185.81C533.05 185.81 534.05 185.95 535.1 186.22L534.78 188.81C533.91 188.54 533.05 188.4 532.18 188.4C527.76 188.4 525.17 191.86 525.17 196.92V210.81H522.44V210.82Z" fill="#828282"/>
<g opacity="0.85">
<path opacity="0.85" d="M318.54 96.7C312.03 94.35 306.01 90.7 300.44 86.55C294.84 82.42 289.69 77.71 284.77 72.8C282.32 70.33 279.98 67.76 277.67 65.15C276.521 63.8429 275.391 62.5195 274.28 61.18C273.17 59.84 272.05 58.45 271.05 57.01L269.5 54.87L268.05 52.64C267.05 51.18 266.24 49.57 265.34 48.03C263.71 44.84 262.26 41.5 261.35 37.94C260.44 34.39 260.03 30.62 260.42 26.86C260.79 23.1 261.96 19.38 263.88 16.12C264.8 14.47 265.95 12.96 267.17 11.55C268.39 10.13 269.75 8.86001 271.18 7.69001C272.61 6.52001 274.12 5.46001 275.7 4.52001C276.49 4.04001 277.3 3.61001 278.13 3.19001C278.55 2.98001 278.97 2.78 279.44 2.59L279.68 2.49001L279.85 2.44001L280.19 2.33001L280.86 2.12C287.93 -0.229999 295.83 0.210005 302.64 2.89001C306.06 4.20001 309.23 6.04001 312.1 8.22001C313.535 9.30086 314.907 10.4627 316.21 11.7C317.52 12.96 318.72 14.2 319.91 15.71L317.27 15.6C318.61 14.34 319.96 13.09 321.34 11.88L323.54 10.2C324.28 9.65 324.97 9.05001 325.78 8.60001C327.35 7.63001 328.88 6.60001 330.57 5.85001L331.81 5.25001L332.43 4.95L333.08 4.71001L335.68 3.77001C339.2 2.70001 342.87 2.13 346.52 2.28C350.15 2.41 353.77 3.18001 356.99 4.77001C353.62 3.57001 350.02 3.26001 346.53 3.44001C343.03 3.66001 339.61 4.48001 336.39 5.74001L334.03 6.82001L333.44 7.09L332.88 7.42L331.76 8.07001C330.22 8.86001 328.84 9.93 327.43 10.92C326.7 11.39 326.08 12 325.42 12.56L323.46 14.26L319.83 17.99L318.49 19.37L317.19 17.88C316.19 16.73 314.95 15.53 313.72 14.46C312.471 13.3805 311.162 12.3722 309.8 11.44C307.08 9.58001 304.17 8.06001 301.13 6.97001C298.09 5.88001 294.91 5.28001 291.74 5.25001C288.57 5.21001 285.38 5.74001 282.38 6.72001L281.35 7.06C280.275 7.54462 279.233 8.09914 278.23 8.72001C276.86 9.56001 275.55 10.49 274.33 11.52C271.87 13.56 269.76 15.97 268.21 18.66C264.97 24.01 264.44 30.59 266.03 36.82C266.81 39.94 267.98 43.02 269.42 45.99C270.22 47.44 270.92 48.95 271.83 50.35L273.13 52.49L274.55 54.57C276.42 57.33 278.52 60.05 280.64 62.71C282.78 65.36 284.97 67.98 287.26 70.52C291.77 75.65 296.59 80.51 301.71 85.03C306.87 89.44 312.37 93.59 318.54 96.7V96.7Z" fill="#E71D73"/>
</g>
<path d="M338.33 53.79C336.25 49.31 331.52 46.18 326.02 46.18C318.59 46.18 312.57 51.88 312.57 58.92C312.57 65.42 317.7 70.78 324.33 71.56C321.24 75.27 318.2 78.16 319.68 78.6C322.1 79.32 334.44 72.79 337.85 66.59C340.35 62.04 340.05 55.79 338.33 53.79V53.79ZM374.09 29.71C370.9 22.84 363.65 18.04 355.21 18.04C343.82 18.04 334.59 26.78 334.59 37.57C334.59 47.53 342.46 55.75 352.63 56.95C347.9 62.64 343.23 67.07 345.51 67.74C349.22 68.84 368.14 58.83 373.37 49.32C377.18 42.37 376.73 32.78 374.09 29.71V29.71Z" fill="#84CCD6"/>
</svg>
