<svg width="18" height="18" viewBox="0 0 18 18" fill="none" xmlns="http://www.w3.org/2000/svg">
<circle cx="9" cy="9" r="9" fill="white"/>
<path d="M14 6L7.8125 12L5 9.27273" stroke="url(#paint0_linear)" stroke-linecap="round" stroke-linejoin="round"/>
<defs>
<linearGradient id="paint0_linear" x1="6.5898" y1="7.04647" x2="10.4969" y2="12.9172" gradientUnits="userSpaceOnUse">
<stop stop-color="#78C2CB"/>
<stop offset="1" stop-color="#33909F"/>
</linearGradient>
</defs>
</svg>
